<?xml version="1.0" encoding="utf-8" standalone="no"?>
<!DOCTYPE svg PUBLIC "-//W3C//DTD SVG 1.1//EN"
  "http://www.w3.org/Graphics/SVG/1.1/DTD/svg11.dtd">
<svg xmlns:xlink="http://www.w3.org/1999/xlink" width="720pt" height="360pt" viewBox="0 0 720 360" xmlns="http://www.w3.org/2000/svg" version="1.1">
 <metadata>
  <rdf:RDF xmlns:dc="http://purl.org/dc/elements/1.1/" xmlns:cc="http://creativecommons.org/ns#" xmlns:rdf="http://www.w3.org/1999/02/22-rdf-syntax-ns#">
   <cc:Work>
    <dc:type rdf:resource="http://purl.org/dc/dcmitype/StillImage"/>
    <dc:date>2022-10-26T08:50:28.338466</dc:date>
    <dc:format>image/svg+xml</dc:format>
    <dc:creator>
     <cc:Agent>
      <dc:title>Matplotlib v3.5.1, https://matplotlib.org/</dc:title>
     </cc:Agent>
    </dc:creator>
   </cc:Work>
  </rdf:RDF>
 </metadata>
 <defs>
  <style type="text/css">*{stroke-linejoin: round; stroke-linecap: butt}</style>
 </defs>
 <g id="figure_1">
  <g id="patch_1">
   <path d="M 0 360 
L 720 360 
L 720 0 
L 0 0 
z
" style="fill: #ffffff"/>
  </g>
  <g id="axes_1">
   <g id="patch_2">
    <path d="M 31.68 328.68 
L 709.2 328.68 
L 709.2 10.8 
L 31.68 10.8 
z
" style="fill: #ffffff"/>
   </g>
   <g id="PathCollection_1">
    <defs>
     <path id="m5e12ae8393" d="M 0 1.5 
C 0.397805 1.5 0.77937 1.341951 1.06066 1.06066 
C 1.341951 0.77937 1.5 0.397805 1.5 0 
C 1.5 -0.397805 1.341951 -0.77937 1.06066 -1.06066 
C 0.77937 -1.341951 0.397805 -1.5 0 -1.5 
C -0.397805 -1.5 -0.77937 -1.341951 -1.06066 -1.06066 
C -1.341951 -0.77937 -1.5 -0.397805 -1.5 0 
C -1.5 0.397805 -1.341951 0.77937 -1.06066 1.06066 
C -0.77937 1.341951 -0.397805 1.5 0 1.5 
z
" style="stroke: #1f77b4"/>
    </defs>
    <g clip-path="url(#p64d3ad8429)">
     <use xlink:href="#m5e12ae8393" x="62.476364" y="314.230909" style="fill: #1f77b4; stroke: #1f77b4"/>
     <use xlink:href="#m5e12ae8393" x="64.910859" y="314.230909" style="fill: #1f77b4; stroke: #1f77b4"/>
     <use xlink:href="#m5e12ae8393" x="67.345354" y="266.067273" style="fill: #1f77b4; stroke: #1f77b4"/>
     <use xlink:href="#m5e12ae8393" x="69.779849" y="266.067273" style="fill: #1f77b4; stroke: #1f77b4"/>
     <use xlink:href="#m5e12ae8393" x="72.214344" y="266.067273" style="fill: #1f77b4; stroke: #1f77b4"/>
     <use xlink:href="#m5e12ae8393" x="74.648839" y="266.067273" style="fill: #1f77b4; stroke: #1f77b4"/>
     <use xlink:href="#m5e12ae8393" x="77.083335" y="217.903636" style="fill: #1f77b4; stroke: #1f77b4"/>
     <use xlink:href="#m5e12ae8393" x="79.51783" y="217.903636" style="fill: #1f77b4; stroke: #1f77b4"/>
     <use xlink:href="#m5e12ae8393" x="81.952325" y="217.903636" style="fill: #1f77b4; stroke: #1f77b4"/>
     <use xlink:href="#m5e12ae8393" x="84.38682" y="217.903636" style="fill: #1f77b4; stroke: #1f77b4"/>
     <use xlink:href="#m5e12ae8393" x="86.821315" y="217.903636" style="fill: #1f77b4; stroke: #1f77b4"/>
     <use xlink:href="#m5e12ae8393" x="89.25581" y="217.903636" style="fill: #1f77b4; stroke: #1f77b4"/>
     <use xlink:href="#m5e12ae8393" x="91.690305" y="217.903636" style="fill: #1f77b4; stroke: #1f77b4"/>
     <use xlink:href="#m5e12ae8393" x="94.124801" y="217.903636" style="fill: #1f77b4; stroke: #1f77b4"/>
     <use xlink:href="#m5e12ae8393" x="96.559296" y="169.74" style="fill: #1f77b4; stroke: #1f77b4"/>
     <use xlink:href="#m5e12ae8393" x="98.993791" y="169.74" style="fill: #1f77b4; stroke: #1f77b4"/>
     <use xlink:href="#m5e12ae8393" x="101.428286" y="169.74" style="fill: #1f77b4; stroke: #1f77b4"/>
     <use xlink:href="#m5e12ae8393" x="103.862781" y="169.74" style="fill: #1f77b4; stroke: #1f77b4"/>
     <use xlink:href="#m5e12ae8393" x="106.297276" y="169.74" style="fill: #1f77b4; stroke: #1f77b4"/>
     <use xlink:href="#m5e12ae8393" x="108.731771" y="169.74" style="fill: #1f77b4; stroke: #1f77b4"/>
     <use xlink:href="#m5e12ae8393" x="111.166267" y="169.74" style="fill: #1f77b4; stroke: #1f77b4"/>
     <use xlink:href="#m5e12ae8393" x="113.600762" y="169.74" style="fill: #1f77b4; stroke: #1f77b4"/>
     <use xlink:href="#m5e12ae8393" x="116.035257" y="169.74" style="fill: #1f77b4; stroke: #1f77b4"/>
     <use xlink:href="#m5e12ae8393" x="118.469752" y="169.74" style="fill: #1f77b4; stroke: #1f77b4"/>
     <use xlink:href="#m5e12ae8393" x="120.904247" y="169.74" style="fill: #1f77b4; stroke: #1f77b4"/>
     <use xlink:href="#m5e12ae8393" x="123.338742" y="169.74" style="fill: #1f77b4; stroke: #1f77b4"/>
     <use xlink:href="#m5e12ae8393" x="125.773238" y="169.74" style="fill: #1f77b4; stroke: #1f77b4"/>
     <use xlink:href="#m5e12ae8393" x="128.207733" y="169.74" style="fill: #1f77b4; stroke: #1f77b4"/>
     <use xlink:href="#m5e12ae8393" x="130.642228" y="169.74" style="fill: #1f77b4; stroke: #1f77b4"/>
     <use xlink:href="#m5e12ae8393" x="133.076723" y="169.74" style="fill: #1f77b4; stroke: #1f77b4"/>
     <use xlink:href="#m5e12ae8393" x="135.511218" y="121.576364" style="fill: #1f77b4; stroke: #1f77b4"/>
     <use xlink:href="#m5e12ae8393" x="137.945713" y="121.576364" style="fill: #1f77b4; stroke: #1f77b4"/>
     <use xlink:href="#m5e12ae8393" x="140.380208" y="121.576364" style="fill: #1f77b4; stroke: #1f77b4"/>
     <use xlink:href="#m5e12ae8393" x="142.814704" y="121.576364" style="fill: #1f77b4; stroke: #1f77b4"/>
     <use xlink:href="#m5e12ae8393" x="145.249199" y="121.576364" style="fill: #1f77b4; stroke: #1f77b4"/>
     <use xlink:href="#m5e12ae8393" x="147.683694" y="121.576364" style="fill: #1f77b4; stroke: #1f77b4"/>
     <use xlink:href="#m5e12ae8393" x="150.118189" y="121.576364" style="fill: #1f77b4; stroke: #1f77b4"/>
     <use xlink:href="#m5e12ae8393" x="152.552684" y="121.576364" style="fill: #1f77b4; stroke: #1f77b4"/>
     <use xlink:href="#m5e12ae8393" x="154.987179" y="121.576364" style="fill: #1f77b4; stroke: #1f77b4"/>
     <use xlink:href="#m5e12ae8393" x="157.421674" y="121.576364" style="fill: #1f77b4; stroke: #1f77b4"/>
     <use xlink:href="#m5e12ae8393" x="159.85617" y="121.576364" style="fill: #1f77b4; stroke: #1f77b4"/>
     <use xlink:href="#m5e12ae8393" x="162.290665" y="121.576364" style="fill: #1f77b4; stroke: #1f77b4"/>
     <use xlink:href="#m5e12ae8393" x="164.72516" y="121.576364" style="fill: #1f77b4; stroke: #1f77b4"/>
     <use xlink:href="#m5e12ae8393" x="167.159655" y="121.576364" style="fill: #1f77b4; stroke: #1f77b4"/>
     <use xlink:href="#m5e12ae8393" x="169.59415" y="121.576364" style="fill: #1f77b4; stroke: #1f77b4"/>
     <use xlink:href="#m5e12ae8393" x="172.028645" y="121.576364" style="fill: #1f77b4; stroke: #1f77b4"/>
     <use xlink:href="#m5e12ae8393" x="174.46314" y="121.576364" style="fill: #1f77b4; stroke: #1f77b4"/>
     <use xlink:href="#m5e12ae8393" x="176.897636" y="121.576364" style="fill: #1f77b4; stroke: #1f77b4"/>
     <use xlink:href="#m5e12ae8393" x="179.332131" y="121.576364" style="fill: #1f77b4; stroke: #1f77b4"/>
     <use xlink:href="#m5e12ae8393" x="181.766626" y="121.576364" style="fill: #1f77b4; stroke: #1f77b4"/>
     <use xlink:href="#m5e12ae8393" x="184.201121" y="121.576364" style="fill: #1f77b4; stroke: #1f77b4"/>
     <use xlink:href="#m5e12ae8393" x="186.635616" y="121.576364" style="fill: #1f77b4; stroke: #1f77b4"/>
     <use xlink:href="#m5e12ae8393" x="189.070111" y="121.576364" style="fill: #1f77b4; stroke: #1f77b4"/>
     <use xlink:href="#m5e12ae8393" x="191.504607" y="121.576364" style="fill: #1f77b4; stroke: #1f77b4"/>
     <use xlink:href="#m5e12ae8393" x="193.939102" y="121.576364" style="fill: #1f77b4; stroke: #1f77b4"/>
     <use xlink:href="#m5e12ae8393" x="196.373597" y="121.576364" style="fill: #1f77b4; stroke: #1f77b4"/>
     <use xlink:href="#m5e12ae8393" x="198.808092" y="121.576364" style="fill: #1f77b4; stroke: #1f77b4"/>
     <use xlink:href="#m5e12ae8393" x="201.242587" y="121.576364" style="fill: #1f77b4; stroke: #1f77b4"/>
     <use xlink:href="#m5e12ae8393" x="203.677082" y="121.576364" style="fill: #1f77b4; stroke: #1f77b4"/>
     <use xlink:href="#m5e12ae8393" x="206.111577" y="121.576364" style="fill: #1f77b4; stroke: #1f77b4"/>
     <use xlink:href="#m5e12ae8393" x="208.546073" y="121.576364" style="fill: #1f77b4; stroke: #1f77b4"/>
     <use xlink:href="#m5e12ae8393" x="210.980568" y="121.576364" style="fill: #1f77b4; stroke: #1f77b4"/>
     <use xlink:href="#m5e12ae8393" x="213.415063" y="73.412727" style="fill: #1f77b4; stroke: #1f77b4"/>
     <use xlink:href="#m5e12ae8393" x="215.849558" y="73.412727" style="fill: #1f77b4; stroke: #1f77b4"/>
     <use xlink:href="#m5e12ae8393" x="218.284053" y="73.412727" style="fill: #1f77b4; stroke: #1f77b4"/>
     <use xlink:href="#m5e12ae8393" x="220.718548" y="73.412727" style="fill: #1f77b4; stroke: #1f77b4"/>
     <use xlink:href="#m5e12ae8393" x="223.153043" y="73.412727" style="fill: #1f77b4; stroke: #1f77b4"/>
     <use xlink:href="#m5e12ae8393" x="225.587539" y="73.412727" style="fill: #1f77b4; stroke: #1f77b4"/>
     <use xlink:href="#m5e12ae8393" x="228.022034" y="73.412727" style="fill: #1f77b4; stroke: #1f77b4"/>
     <use xlink:href="#m5e12ae8393" x="230.456529" y="73.412727" style="fill: #1f77b4; stroke: #1f77b4"/>
     <use xlink:href="#m5e12ae8393" x="232.891024" y="73.412727" style="fill: #1f77b4; stroke: #1f77b4"/>
     <use xlink:href="#m5e12ae8393" x="235.325519" y="73.412727" style="fill: #1f77b4; stroke: #1f77b4"/>
     <use xlink:href="#m5e12ae8393" x="237.760014" y="73.412727" style="fill: #1f77b4; stroke: #1f77b4"/>
     <use xlink:href="#m5e12ae8393" x="240.19451" y="73.412727" style="fill: #1f77b4; stroke: #1f77b4"/>
     <use xlink:href="#m5e12ae8393" x="242.629005" y="73.412727" style="fill: #1f77b4; stroke: #1f77b4"/>
     <use xlink:href="#m5e12ae8393" x="245.0635" y="73.412727" style="fill: #1f77b4; stroke: #1f77b4"/>
     <use xlink:href="#m5e12ae8393" x="247.497995" y="73.412727" style="fill: #1f77b4; stroke: #1f77b4"/>
     <use xlink:href="#m5e12ae8393" x="249.93249" y="73.412727" style="fill: #1f77b4; stroke: #1f77b4"/>
     <use xlink:href="#m5e12ae8393" x="252.366985" y="73.412727" style="fill: #1f77b4; stroke: #1f77b4"/>
     <use xlink:href="#m5e12ae8393" x="254.80148" y="73.412727" style="fill: #1f77b4; stroke: #1f77b4"/>
     <use xlink:href="#m5e12ae8393" x="257.235976" y="73.412727" style="fill: #1f77b4; stroke: #1f77b4"/>
     <use xlink:href="#m5e12ae8393" x="259.670471" y="73.412727" style="fill: #1f77b4; stroke: #1f77b4"/>
     <use xlink:href="#m5e12ae8393" x="262.104966" y="73.412727" style="fill: #1f77b4; stroke: #1f77b4"/>
     <use xlink:href="#m5e12ae8393" x="264.539461" y="73.412727" style="fill: #1f77b4; stroke: #1f77b4"/>
     <use xlink:href="#m5e12ae8393" x="266.973956" y="73.412727" style="fill: #1f77b4; stroke: #1f77b4"/>
     <use xlink:href="#m5e12ae8393" x="269.408451" y="73.412727" style="fill: #1f77b4; stroke: #1f77b4"/>
     <use xlink:href="#m5e12ae8393" x="271.842946" y="73.412727" style="fill: #1f77b4; stroke: #1f77b4"/>
     <use xlink:href="#m5e12ae8393" x="274.277442" y="73.412727" style="fill: #1f77b4; stroke: #1f77b4"/>
     <use xlink:href="#m5e12ae8393" x="276.711937" y="73.412727" style="fill: #1f77b4; stroke: #1f77b4"/>
     <use xlink:href="#m5e12ae8393" x="279.146432" y="73.412727" style="fill: #1f77b4; stroke: #1f77b4"/>
     <use xlink:href="#m5e12ae8393" x="281.580927" y="73.412727" style="fill: #1f77b4; stroke: #1f77b4"/>
     <use xlink:href="#m5e12ae8393" x="284.015422" y="73.412727" style="fill: #1f77b4; stroke: #1f77b4"/>
     <use xlink:href="#m5e12ae8393" x="286.449917" y="73.412727" style="fill: #1f77b4; stroke: #1f77b4"/>
     <use xlink:href="#m5e12ae8393" x="288.884413" y="73.412727" style="fill: #1f77b4; stroke: #1f77b4"/>
     <use xlink:href="#m5e12ae8393" x="291.318908" y="73.412727" style="fill: #1f77b4; stroke: #1f77b4"/>
     <use xlink:href="#m5e12ae8393" x="293.753403" y="73.412727" style="fill: #1f77b4; stroke: #1f77b4"/>
     <use xlink:href="#m5e12ae8393" x="296.187898" y="73.412727" style="fill: #1f77b4; stroke: #1f77b4"/>
     <use xlink:href="#m5e12ae8393" x="298.622393" y="73.412727" style="fill: #1f77b4; stroke: #1f77b4"/>
     <use xlink:href="#m5e12ae8393" x="301.056888" y="73.412727" style="fill: #1f77b4; stroke: #1f77b4"/>
     <use xlink:href="#m5e12ae8393" x="303.491383" y="73.412727" style="fill: #1f77b4; stroke: #1f77b4"/>
     <use xlink:href="#m5e12ae8393" x="305.925879" y="73.412727" style="fill: #1f77b4; stroke: #1f77b4"/>
     <use xlink:href="#m5e12ae8393" x="308.360374" y="73.412727" style="fill: #1f77b4; stroke: #1f77b4"/>
     <use xlink:href="#m5e12ae8393" x="310.794869" y="73.412727" style="fill: #1f77b4; stroke: #1f77b4"/>
     <use xlink:href="#m5e12ae8393" x="313.229364" y="73.412727" style="fill: #1f77b4; stroke: #1f77b4"/>
     <use xlink:href="#m5e12ae8393" x="315.663859" y="73.412727" style="fill: #1f77b4; stroke: #1f77b4"/>
     <use xlink:href="#m5e12ae8393" x="318.098354" y="73.412727" style="fill: #1f77b4; stroke: #1f77b4"/>
     <use xlink:href="#m5e12ae8393" x="320.532849" y="73.412727" style="fill: #1f77b4; stroke: #1f77b4"/>
     <use xlink:href="#m5e12ae8393" x="322.967345" y="73.412727" style="fill: #1f77b4; stroke: #1f77b4"/>
     <use xlink:href="#m5e12ae8393" x="325.40184" y="73.412727" style="fill: #1f77b4; stroke: #1f77b4"/>
     <use xlink:href="#m5e12ae8393" x="327.836335" y="73.412727" style="fill: #1f77b4; stroke: #1f77b4"/>
     <use xlink:href="#m5e12ae8393" x="330.27083" y="73.412727" style="fill: #1f77b4; stroke: #1f77b4"/>
     <use xlink:href="#m5e12ae8393" x="332.705325" y="73.412727" style="fill: #1f77b4; stroke: #1f77b4"/>
     <use xlink:href="#m5e12ae8393" x="335.13982" y="73.412727" style="fill: #1f77b4; stroke: #1f77b4"/>
     <use xlink:href="#m5e12ae8393" x="337.574315" y="73.412727" style="fill: #1f77b4; stroke: #1f77b4"/>
     <use xlink:href="#m5e12ae8393" x="340.008811" y="73.412727" style="fill: #1f77b4; stroke: #1f77b4"/>
     <use xlink:href="#m5e12ae8393" x="342.443306" y="73.412727" style="fill: #1f77b4; stroke: #1f77b4"/>
     <use xlink:href="#m5e12ae8393" x="344.877801" y="73.412727" style="fill: #1f77b4; stroke: #1f77b4"/>
     <use xlink:href="#m5e12ae8393" x="347.312296" y="73.412727" style="fill: #1f77b4; stroke: #1f77b4"/>
     <use xlink:href="#m5e12ae8393" x="349.746791" y="73.412727" style="fill: #1f77b4; stroke: #1f77b4"/>
     <use xlink:href="#m5e12ae8393" x="352.181286" y="73.412727" style="fill: #1f77b4; stroke: #1f77b4"/>
     <use xlink:href="#m5e12ae8393" x="354.615782" y="73.412727" style="fill: #1f77b4; stroke: #1f77b4"/>
     <use xlink:href="#m5e12ae8393" x="357.050277" y="73.412727" style="fill: #1f77b4; stroke: #1f77b4"/>
     <use xlink:href="#m5e12ae8393" x="359.484772" y="73.412727" style="fill: #1f77b4; stroke: #1f77b4"/>
     <use xlink:href="#m5e12ae8393" x="361.919267" y="73.412727" style="fill: #1f77b4; stroke: #1f77b4"/>
     <use xlink:href="#m5e12ae8393" x="364.353762" y="73.412727" style="fill: #1f77b4; stroke: #1f77b4"/>
     <use xlink:href="#m5e12ae8393" x="366.788257" y="73.412727" style="fill: #1f77b4; stroke: #1f77b4"/>
     <use xlink:href="#m5e12ae8393" x="369.222752" y="25.249091" style="fill: #1f77b4; stroke: #1f77b4"/>
     <use xlink:href="#m5e12ae8393" x="371.657248" y="25.249091" style="fill: #1f77b4; stroke: #1f77b4"/>
     <use xlink:href="#m5e12ae8393" x="374.091743" y="25.249091" style="fill: #1f77b4; stroke: #1f77b4"/>
     <use xlink:href="#m5e12ae8393" x="376.526238" y="25.249091" style="fill: #1f77b4; stroke: #1f77b4"/>
     <use xlink:href="#m5e12ae8393" x="378.960733" y="25.249091" style="fill: #1f77b4; stroke: #1f77b4"/>
     <use xlink:href="#m5e12ae8393" x="381.395228" y="25.249091" style="fill: #1f77b4; stroke: #1f77b4"/>
     <use xlink:href="#m5e12ae8393" x="383.829723" y="25.249091" style="fill: #1f77b4; stroke: #1f77b4"/>
     <use xlink:href="#m5e12ae8393" x="386.264218" y="25.249091" style="fill: #1f77b4; stroke: #1f77b4"/>
     <use xlink:href="#m5e12ae8393" x="388.698714" y="25.249091" style="fill: #1f77b4; stroke: #1f77b4"/>
     <use xlink:href="#m5e12ae8393" x="391.133209" y="25.249091" style="fill: #1f77b4; stroke: #1f77b4"/>
     <use xlink:href="#m5e12ae8393" x="393.567704" y="25.249091" style="fill: #1f77b4; stroke: #1f77b4"/>
     <use xlink:href="#m5e12ae8393" x="396.002199" y="25.249091" style="fill: #1f77b4; stroke: #1f77b4"/>
     <use xlink:href="#m5e12ae8393" x="398.436694" y="25.249091" style="fill: #1f77b4; stroke: #1f77b4"/>
     <use xlink:href="#m5e12ae8393" x="400.871189" y="25.249091" style="fill: #1f77b4; stroke: #1f77b4"/>
     <use xlink:href="#m5e12ae8393" x="403.305685" y="25.249091" style="fill: #1f77b4; stroke: #1f77b4"/>
     <use xlink:href="#m5e12ae8393" x="405.74018" y="25.249091" style="fill: #1f77b4; stroke: #1f77b4"/>
     <use xlink:href="#m5e12ae8393" x="408.174675" y="25.249091" style="fill: #1f77b4; stroke: #1f77b4"/>
     <use xlink:href="#m5e12ae8393" x="410.60917" y="25.249091" style="fill: #1f77b4; stroke: #1f77b4"/>
     <use xlink:href="#m5e12ae8393" x="413.043665" y="25.249091" style="fill: #1f77b4; stroke: #1f77b4"/>
     <use xlink:href="#m5e12ae8393" x="415.47816" y="25.249091" style="fill: #1f77b4; stroke: #1f77b4"/>
     <use xlink:href="#m5e12ae8393" x="417.912655" y="25.249091" style="fill: #1f77b4; stroke: #1f77b4"/>
     <use xlink:href="#m5e12ae8393" x="420.347151" y="25.249091" style="fill: #1f77b4; stroke: #1f77b4"/>
     <use xlink:href="#m5e12ae8393" x="422.781646" y="25.249091" style="fill: #1f77b4; stroke: #1f77b4"/>
     <use xlink:href="#m5e12ae8393" x="425.216141" y="25.249091" style="fill: #1f77b4; stroke: #1f77b4"/>
     <use xlink:href="#m5e12ae8393" x="427.650636" y="25.249091" style="fill: #1f77b4; stroke: #1f77b4"/>
     <use xlink:href="#m5e12ae8393" x="430.085131" y="25.249091" style="fill: #1f77b4; stroke: #1f77b4"/>
     <use xlink:href="#m5e12ae8393" x="432.519626" y="25.249091" style="fill: #1f77b4; stroke: #1f77b4"/>
     <use xlink:href="#m5e12ae8393" x="434.954121" y="25.249091" style="fill: #1f77b4; stroke: #1f77b4"/>
     <use xlink:href="#m5e12ae8393" x="437.388617" y="25.249091" style="fill: #1f77b4; stroke: #1f77b4"/>
     <use xlink:href="#m5e12ae8393" x="439.823112" y="25.249091" style="fill: #1f77b4; stroke: #1f77b4"/>
     <use xlink:href="#m5e12ae8393" x="442.257607" y="25.249091" style="fill: #1f77b4; stroke: #1f77b4"/>
     <use xlink:href="#m5e12ae8393" x="444.692102" y="25.249091" style="fill: #1f77b4; stroke: #1f77b4"/>
     <use xlink:href="#m5e12ae8393" x="447.126597" y="25.249091" style="fill: #1f77b4; stroke: #1f77b4"/>
     <use xlink:href="#m5e12ae8393" x="449.561092" y="25.249091" style="fill: #1f77b4; stroke: #1f77b4"/>
     <use xlink:href="#m5e12ae8393" x="451.995587" y="25.249091" style="fill: #1f77b4; stroke: #1f77b4"/>
     <use xlink:href="#m5e12ae8393" x="454.430083" y="25.249091" style="fill: #1f77b4; stroke: #1f77b4"/>
     <use xlink:href="#m5e12ae8393" x="456.864578" y="25.249091" style="fill: #1f77b4; stroke: #1f77b4"/>
     <use xlink:href="#m5e12ae8393" x="459.299073" y="25.249091" style="fill: #1f77b4; stroke: #1f77b4"/>
     <use xlink:href="#m5e12ae8393" x="461.733568" y="25.249091" style="fill: #1f77b4; stroke: #1f77b4"/>
     <use xlink:href="#m5e12ae8393" x="464.168063" y="25.249091" style="fill: #1f77b4; stroke: #1f77b4"/>
     <use xlink:href="#m5e12ae8393" x="466.602558" y="25.249091" style="fill: #1f77b4; stroke: #1f77b4"/>
     <use xlink:href="#m5e12ae8393" x="469.037054" y="25.249091" style="fill: #1f77b4; stroke: #1f77b4"/>
     <use xlink:href="#m5e12ae8393" x="471.471549" y="25.249091" style="fill: #1f77b4; stroke: #1f77b4"/>
     <use xlink:href="#m5e12ae8393" x="473.906044" y="25.249091" style="fill: #1f77b4; stroke: #1f77b4"/>
     <use xlink:href="#m5e12ae8393" x="476.340539" y="25.249091" style="fill: #1f77b4; stroke: #1f77b4"/>
     <use xlink:href="#m5e12ae8393" x="478.775034" y="25.249091" style="fill: #1f77b4; stroke: #1f77b4"/>
     <use xlink:href="#m5e12ae8393" x="481.209529" y="25.249091" style="fill: #1f77b4; stroke: #1f77b4"/>
     <use xlink:href="#m5e12ae8393" x="483.644024" y="25.249091" style="fill: #1f77b4; stroke: #1f77b4"/>
     <use xlink:href="#m5e12ae8393" x="486.07852" y="25.249091" style="fill: #1f77b4; stroke: #1f77b4"/>
     <use xlink:href="#m5e12ae8393" x="488.513015" y="25.249091" style="fill: #1f77b4; stroke: #1f77b4"/>
     <use xlink:href="#m5e12ae8393" x="490.94751" y="25.249091" style="fill: #1f77b4; stroke: #1f77b4"/>
     <use xlink:href="#m5e12ae8393" x="493.382005" y="25.249091" style="fill: #1f77b4; stroke: #1f77b4"/>
     <use xlink:href="#m5e12ae8393" x="495.8165" y="25.249091" style="fill: #1f77b4; stroke: #1f77b4"/>
     <use xlink:href="#m5e12ae8393" x="498.250995" y="25.249091" style="fill: #1f77b4; stroke: #1f77b4"/>
     <use xlink:href="#m5e12ae8393" x="500.68549" y="25.249091" style="fill: #1f77b4; stroke: #1f77b4"/>
     <use xlink:href="#m5e12ae8393" x="503.119986" y="25.249091" style="fill: #1f77b4; stroke: #1f77b4"/>
     <use xlink:href="#m5e12ae8393" x="505.554481" y="25.249091" style="fill: #1f77b4; stroke: #1f77b4"/>
     <use xlink:href="#m5e12ae8393" x="507.988976" y="25.249091" style="fill: #1f77b4; stroke: #1f77b4"/>
     <use xlink:href="#m5e12ae8393" x="510.423471" y="25.249091" style="fill: #1f77b4; stroke: #1f77b4"/>
     <use xlink:href="#m5e12ae8393" x="512.857966" y="25.249091" style="fill: #1f77b4; stroke: #1f77b4"/>
     <use xlink:href="#m5e12ae8393" x="515.292461" y="25.249091" style="fill: #1f77b4; stroke: #1f77b4"/>
     <use xlink:href="#m5e12ae8393" x="517.726957" y="25.249091" style="fill: #1f77b4; stroke: #1f77b4"/>
     <use xlink:href="#m5e12ae8393" x="520.161452" y="25.249091" style="fill: #1f77b4; stroke: #1f77b4"/>
     <use xlink:href="#m5e12ae8393" x="522.595947" y="25.249091" style="fill: #1f77b4; stroke: #1f77b4"/>
     <use xlink:href="#m5e12ae8393" x="525.030442" y="25.249091" style="fill: #1f77b4; stroke: #1f77b4"/>
     <use xlink:href="#m5e12ae8393" x="527.464937" y="25.249091" style="fill: #1f77b4; stroke: #1f77b4"/>
     <use xlink:href="#m5e12ae8393" x="529.899432" y="25.249091" style="fill: #1f77b4; stroke: #1f77b4"/>
     <use xlink:href="#m5e12ae8393" x="532.333927" y="25.249091" style="fill: #1f77b4; stroke: #1f77b4"/>
     <use xlink:href="#m5e12ae8393" x="534.768423" y="25.249091" style="fill: #1f77b4; stroke: #1f77b4"/>
     <use xlink:href="#m5e12ae8393" x="537.202918" y="25.249091" style="fill: #1f77b4; stroke: #1f77b4"/>
     <use xlink:href="#m5e12ae8393" x="539.637413" y="25.249091" style="fill: #1f77b4; stroke: #1f77b4"/>
     <use xlink:href="#m5e12ae8393" x="542.071908" y="25.249091" style="fill: #1f77b4; stroke: #1f77b4"/>
     <use xlink:href="#m5e12ae8393" x="544.506403" y="25.249091" style="fill: #1f77b4; stroke: #1f77b4"/>
     <use xlink:href="#m5e12ae8393" x="546.940898" y="25.249091" style="fill: #1f77b4; stroke: #1f77b4"/>
     <use xlink:href="#m5e12ae8393" x="549.375393" y="25.249091" style="fill: #1f77b4; stroke: #1f77b4"/>
     <use xlink:href="#m5e12ae8393" x="551.809889" y="25.249091" style="fill: #1f77b4; stroke: #1f77b4"/>
     <use xlink:href="#m5e12ae8393" x="554.244384" y="25.249091" style="fill: #1f77b4; stroke: #1f77b4"/>
     <use xlink:href="#m5e12ae8393" x="556.678879" y="25.249091" style="fill: #1f77b4; stroke: #1f77b4"/>
     <use xlink:href="#m5e12ae8393" x="559.113374" y="25.249091" style="fill: #1f77b4; stroke: #1f77b4"/>
     <use xlink:href="#m5e12ae8393" x="561.547869" y="25.249091" style="fill: #1f77b4; stroke: #1f77b4"/>
     <use xlink:href="#m5e12ae8393" x="563.982364" y="25.249091" style="fill: #1f77b4; stroke: #1f77b4"/>
     <use xlink:href="#m5e12ae8393" x="566.41686" y="25.249091" style="fill: #1f77b4; stroke: #1f77b4"/>
     <use xlink:href="#m5e12ae8393" x="568.851355" y="25.249091" style="fill: #1f77b4; stroke: #1f77b4"/>
     <use xlink:href="#m5e12ae8393" x="571.28585" y="25.249091" style="fill: #1f77b4; stroke: #1f77b4"/>
     <use xlink:href="#m5e12ae8393" x="573.720345" y="25.249091" style="fill: #1f77b4; stroke: #1f77b4"/>
     <use xlink:href="#m5e12ae8393" x="576.15484" y="25.249091" style="fill: #1f77b4; stroke: #1f77b4"/>
     <use xlink:href="#m5e12ae8393" x="578.589335" y="25.249091" style="fill: #1f77b4; stroke: #1f77b4"/>
     <use xlink:href="#m5e12ae8393" x="581.02383" y="25.249091" style="fill: #1f77b4; stroke: #1f77b4"/>
     <use xlink:href="#m5e12ae8393" x="583.458326" y="25.249091" style="fill: #1f77b4; stroke: #1f77b4"/>
     <use xlink:href="#m5e12ae8393" x="585.892821" y="25.249091" style="fill: #1f77b4; stroke: #1f77b4"/>
     <use xlink:href="#m5e12ae8393" x="588.327316" y="25.249091" style="fill: #1f77b4; stroke: #1f77b4"/>
     <use xlink:href="#m5e12ae8393" x="590.761811" y="25.249091" style="fill: #1f77b4; stroke: #1f77b4"/>
     <use xlink:href="#m5e12ae8393" x="593.196306" y="25.249091" style="fill: #1f77b4; stroke: #1f77b4"/>
     <use xlink:href="#m5e12ae8393" x="595.630801" y="25.249091" style="fill: #1f77b4; stroke: #1f77b4"/>
     <use xlink:href="#m5e12ae8393" x="598.065296" y="25.249091" style="fill: #1f77b4; stroke: #1f77b4"/>
     <use xlink:href="#m5e12ae8393" x="600.499792" y="25.249091" style="fill: #1f77b4; stroke: #1f77b4"/>
     <use xlink:href="#m5e12ae8393" x="602.934287" y="25.249091" style="fill: #1f77b4; stroke: #1f77b4"/>
     <use xlink:href="#m5e12ae8393" x="605.368782" y="25.249091" style="fill: #1f77b4; stroke: #1f77b4"/>
     <use xlink:href="#m5e12ae8393" x="607.803277" y="25.249091" style="fill: #1f77b4; stroke: #1f77b4"/>
     <use xlink:href="#m5e12ae8393" x="610.237772" y="25.249091" style="fill: #1f77b4; stroke: #1f77b4"/>
     <use xlink:href="#m5e12ae8393" x="612.672267" y="25.249091" style="fill: #1f77b4; stroke: #1f77b4"/>
     <use xlink:href="#m5e12ae8393" x="615.106762" y="25.249091" style="fill: #1f77b4; stroke: #1f77b4"/>
     <use xlink:href="#m5e12ae8393" x="617.541258" y="25.249091" style="fill: #1f77b4; stroke: #1f77b4"/>
     <use xlink:href="#m5e12ae8393" x="619.975753" y="25.249091" style="fill: #1f77b4; stroke: #1f77b4"/>
     <use xlink:href="#m5e12ae8393" x="622.410248" y="25.249091" style="fill: #1f77b4; stroke: #1f77b4"/>
     <use xlink:href="#m5e12ae8393" x="624.844743" y="25.249091" style="fill: #1f77b4; stroke: #1f77b4"/>
     <use xlink:href="#m5e12ae8393" x="627.279238" y="25.249091" style="fill: #1f77b4; stroke: #1f77b4"/>
     <use xlink:href="#m5e12ae8393" x="629.713733" y="25.249091" style="fill: #1f77b4; stroke: #1f77b4"/>
     <use xlink:href="#m5e12ae8393" x="632.148229" y="25.249091" style="fill: #1f77b4; stroke: #1f77b4"/>
     <use xlink:href="#m5e12ae8393" x="634.582724" y="25.249091" style="fill: #1f77b4; stroke: #1f77b4"/>
     <use xlink:href="#m5e12ae8393" x="637.017219" y="25.249091" style="fill: #1f77b4; stroke: #1f77b4"/>
     <use xlink:href="#m5e12ae8393" x="639.451714" y="25.249091" style="fill: #1f77b4; stroke: #1f77b4"/>
     <use xlink:href="#m5e12ae8393" x="641.886209" y="25.249091" style="fill: #1f77b4; stroke: #1f77b4"/>
     <use xlink:href="#m5e12ae8393" x="644.320704" y="25.249091" style="fill: #1f77b4; stroke: #1f77b4"/>
     <use xlink:href="#m5e12ae8393" x="646.755199" y="25.249091" style="fill: #1f77b4; stroke: #1f77b4"/>
     <use xlink:href="#m5e12ae8393" x="649.189695" y="25.249091" style="fill: #1f77b4; stroke: #1f77b4"/>
     <use xlink:href="#m5e12ae8393" x="651.62419" y="25.249091" style="fill: #1f77b4; stroke: #1f77b4"/>
     <use xlink:href="#m5e12ae8393" x="654.058685" y="25.249091" style="fill: #1f77b4; stroke: #1f77b4"/>
     <use xlink:href="#m5e12ae8393" x="656.49318" y="25.249091" style="fill: #1f77b4; stroke: #1f77b4"/>
     <use xlink:href="#m5e12ae8393" x="658.927675" y="25.249091" style="fill: #1f77b4; stroke: #1f77b4"/>
     <use xlink:href="#m5e12ae8393" x="661.36217" y="25.249091" style="fill: #1f77b4; stroke: #1f77b4"/>
     <use xlink:href="#m5e12ae8393" x="663.796665" y="25.249091" style="fill: #1f77b4; stroke: #1f77b4"/>
     <use xlink:href="#m5e12ae8393" x="666.231161" y="25.249091" style="fill: #1f77b4; stroke: #1f77b4"/>
     <use xlink:href="#m5e12ae8393" x="668.665656" y="25.249091" style="fill: #1f77b4; stroke: #1f77b4"/>
     <use xlink:href="#m5e12ae8393" x="671.100151" y="25.249091" style="fill: #1f77b4; stroke: #1f77b4"/>
     <use xlink:href="#m5e12ae8393" x="673.534646" y="25.249091" style="fill: #1f77b4; stroke: #1f77b4"/>
     <use xlink:href="#m5e12ae8393" x="675.969141" y="25.249091" style="fill: #1f77b4; stroke: #1f77b4"/>
     <use xlink:href="#m5e12ae8393" x="678.403636" y="25.249091" style="fill: #1f77b4; stroke: #1f77b4"/>
    </g>
   </g>
   <g id="matplotlib.axis_1">
    <g id="xtick_1">
     <g id="line2d_1">
      <defs>
       <path id="mac8158a0bb" d="M 0 0 
L 0 3.5 
" style="stroke: #000000; stroke-width: 0.8"/>
      </defs>
      <g>
       <use xlink:href="#mac8158a0bb" x="60.041868" y="328.68" style="stroke: #000000; stroke-width: 0.8"/>
      </g>
     </g>
     <g id="text_1">
      <!-- 0 -->
      <g transform="translate(56.860618 343.278437)scale(0.1 -0.1)">
       <defs>
        <path id="DejaVuSans-30" d="M 2034 4250 
Q 1547 4250 1301 3770 
Q 1056 3291 1056 2328 
Q 1056 1369 1301 889 
Q 1547 409 2034 409 
Q 2525 409 2770 889 
Q 3016 1369 3016 2328 
Q 3016 3291 2770 3770 
Q 2525 4250 2034 4250 
z
M 2034 4750 
Q 2819 4750 3233 4129 
Q 3647 3509 3647 2328 
Q 3647 1150 3233 529 
Q 2819 -91 2034 -91 
Q 1250 -91 836 529 
Q 422 1150 422 2328 
Q 422 3509 836 4129 
Q 1250 4750 2034 4750 
z
" transform="scale(0.015625)"/>
       </defs>
       <use xlink:href="#DejaVuSans-30"/>
      </g>
     </g>
    </g>
    <g id="xtick_2">
     <g id="line2d_2">
      <g>
       <use xlink:href="#mac8158a0bb" x="120.904247" y="328.68" style="stroke: #000000; stroke-width: 0.8"/>
      </g>
     </g>
     <g id="text_2">
      <!-- 25 -->
      <g transform="translate(114.541747 343.278437)scale(0.1 -0.1)">
       <defs>
        <path id="DejaVuSans-32" d="M 1228 531 
L 3431 531 
L 3431 0 
L 469 0 
L 469 531 
Q 828 903 1448 1529 
Q 2069 2156 2228 2338 
Q 2531 2678 2651 2914 
Q 2772 3150 2772 3378 
Q 2772 3750 2511 3984 
Q 2250 4219 1831 4219 
Q 1534 4219 1204 4116 
Q 875 4013 500 3803 
L 500 4441 
Q 881 4594 1212 4672 
Q 1544 4750 1819 4750 
Q 2544 4750 2975 4387 
Q 3406 4025 3406 3419 
Q 3406 3131 3298 2873 
Q 3191 2616 2906 2266 
Q 2828 2175 2409 1742 
Q 1991 1309 1228 531 
z
" transform="scale(0.015625)"/>
        <path id="DejaVuSans-35" d="M 691 4666 
L 3169 4666 
L 3169 4134 
L 1269 4134 
L 1269 2991 
Q 1406 3038 1543 3061 
Q 1681 3084 1819 3084 
Q 2600 3084 3056 2656 
Q 3513 2228 3513 1497 
Q 3513 744 3044 326 
Q 2575 -91 1722 -91 
Q 1428 -91 1123 -41 
Q 819 9 494 109 
L 494 744 
Q 775 591 1075 516 
Q 1375 441 1709 441 
Q 2250 441 2565 725 
Q 2881 1009 2881 1497 
Q 2881 1984 2565 2268 
Q 2250 2553 1709 2553 
Q 1456 2553 1204 2497 
Q 953 2441 691 2322 
L 691 4666 
z
" transform="scale(0.015625)"/>
       </defs>
       <use xlink:href="#DejaVuSans-32"/>
       <use xlink:href="#DejaVuSans-35" x="63.623047"/>
      </g>
     </g>
    </g>
    <g id="xtick_3">
     <g id="line2d_3">
      <g>
       <use xlink:href="#mac8158a0bb" x="181.766626" y="328.68" style="stroke: #000000; stroke-width: 0.8"/>
      </g>
     </g>
     <g id="text_3">
      <!-- 50 -->
      <g transform="translate(175.404126 343.278437)scale(0.1 -0.1)">
       <use xlink:href="#DejaVuSans-35"/>
       <use xlink:href="#DejaVuSans-30" x="63.623047"/>
      </g>
     </g>
    </g>
    <g id="xtick_4">
     <g id="line2d_4">
      <g>
       <use xlink:href="#mac8158a0bb" x="242.629005" y="328.68" style="stroke: #000000; stroke-width: 0.8"/>
      </g>
     </g>
     <g id="text_4">
      <!-- 75 -->
      <g transform="translate(236.266505 343.278437)scale(0.1 -0.1)">
       <defs>
        <path id="DejaVuSans-37" d="M 525 4666 
L 3525 4666 
L 3525 4397 
L 1831 0 
L 1172 0 
L 2766 4134 
L 525 4134 
L 525 4666 
z
" transform="scale(0.015625)"/>
       </defs>
       <use xlink:href="#DejaVuSans-37"/>
       <use xlink:href="#DejaVuSans-35" x="63.623047"/>
      </g>
     </g>
    </g>
    <g id="xtick_5">
     <g id="line2d_5">
      <g>
       <use xlink:href="#mac8158a0bb" x="303.491383" y="328.68" style="stroke: #000000; stroke-width: 0.8"/>
      </g>
     </g>
     <g id="text_5">
      <!-- 100 -->
      <g transform="translate(293.947633 343.278437)scale(0.1 -0.1)">
       <defs>
        <path id="DejaVuSans-31" d="M 794 531 
L 1825 531 
L 1825 4091 
L 703 3866 
L 703 4441 
L 1819 4666 
L 2450 4666 
L 2450 531 
L 3481 531 
L 3481 0 
L 794 0 
L 794 531 
z
" transform="scale(0.015625)"/>
       </defs>
       <use xlink:href="#DejaVuSans-31"/>
       <use xlink:href="#DejaVuSans-30" x="63.623047"/>
       <use xlink:href="#DejaVuSans-30" x="127.246094"/>
      </g>
     </g>
    </g>
    <g id="xtick_6">
     <g id="line2d_6">
      <g>
       <use xlink:href="#mac8158a0bb" x="364.353762" y="328.68" style="stroke: #000000; stroke-width: 0.8"/>
      </g>
     </g>
     <g id="text_6">
      <!-- 125 -->
      <g transform="translate(354.810012 343.278437)scale(0.1 -0.1)">
       <use xlink:href="#DejaVuSans-31"/>
       <use xlink:href="#DejaVuSans-32" x="63.623047"/>
       <use xlink:href="#DejaVuSans-35" x="127.246094"/>
      </g>
     </g>
    </g>
    <g id="xtick_7">
     <g id="line2d_7">
      <g>
       <use xlink:href="#mac8158a0bb" x="425.216141" y="328.68" style="stroke: #000000; stroke-width: 0.8"/>
      </g>
     </g>
     <g id="text_7">
      <!-- 150 -->
      <g transform="translate(415.672391 343.278437)scale(0.1 -0.1)">
       <use xlink:href="#DejaVuSans-31"/>
       <use xlink:href="#DejaVuSans-35" x="63.623047"/>
       <use xlink:href="#DejaVuSans-30" x="127.246094"/>
      </g>
     </g>
    </g>
    <g id="xtick_8">
     <g id="line2d_8">
      <g>
       <use xlink:href="#mac8158a0bb" x="486.07852" y="328.68" style="stroke: #000000; stroke-width: 0.8"/>
      </g>
     </g>
     <g id="text_8">
      <!-- 175 -->
      <g transform="translate(476.53477 343.278437)scale(0.1 -0.1)">
       <use xlink:href="#DejaVuSans-31"/>
       <use xlink:href="#DejaVuSans-37" x="63.623047"/>
       <use xlink:href="#DejaVuSans-35" x="127.246094"/>
      </g>
     </g>
    </g>
    <g id="xtick_9">
     <g id="line2d_9">
      <g>
       <use xlink:href="#mac8158a0bb" x="546.940898" y="328.68" style="stroke: #000000; stroke-width: 0.8"/>
      </g>
     </g>
     <g id="text_9">
      <!-- 200 -->
      <g transform="translate(537.397148 343.278437)scale(0.1 -0.1)">
       <use xlink:href="#DejaVuSans-32"/>
       <use xlink:href="#DejaVuSans-30" x="63.623047"/>
       <use xlink:href="#DejaVuSans-30" x="127.246094"/>
      </g>
     </g>
    </g>
    <g id="xtick_10">
     <g id="line2d_10">
      <g>
       <use xlink:href="#mac8158a0bb" x="607.803277" y="328.68" style="stroke: #000000; stroke-width: 0.8"/>
      </g>
     </g>
     <g id="text_10">
      <!-- 225 -->
      <g transform="translate(598.259527 343.278437)scale(0.1 -0.1)">
       <use xlink:href="#DejaVuSans-32"/>
       <use xlink:href="#DejaVuSans-32" x="63.623047"/>
       <use xlink:href="#DejaVuSans-35" x="127.246094"/>
      </g>
     </g>
    </g>
    <g id="xtick_11">
     <g id="line2d_11">
      <g>
       <use xlink:href="#mac8158a0bb" x="668.665656" y="328.68" style="stroke: #000000; stroke-width: 0.8"/>
      </g>
     </g>
     <g id="text_11">
      <!-- 250 -->
      <g transform="translate(659.121906 343.278437)scale(0.1 -0.1)">
       <use xlink:href="#DejaVuSans-32"/>
       <use xlink:href="#DejaVuSans-35" x="63.623047"/>
       <use xlink:href="#DejaVuSans-30" x="127.246094"/>
      </g>
     </g>
    </g>
    <g id="text_12">
     <!-- Nombre de valeurs dans l'intervalle -->
     <g transform="translate(281.347813 356.956563)scale(0.1 -0.1)">
      <defs>
       <path id="DejaVuSans-4e" d="M 628 4666 
L 1478 4666 
L 3547 763 
L 3547 4666 
L 4159 4666 
L 4159 0 
L 3309 0 
L 1241 3903 
L 1241 0 
L 628 0 
L 628 4666 
z
" transform="scale(0.015625)"/>
       <path id="DejaVuSans-6f" d="M 1959 3097 
Q 1497 3097 1228 2736 
Q 959 2375 959 1747 
Q 959 1119 1226 758 
Q 1494 397 1959 397 
Q 2419 397 2687 759 
Q 2956 1122 2956 1747 
Q 2956 2369 2687 2733 
Q 2419 3097 1959 3097 
z
M 1959 3584 
Q 2709 3584 3137 3096 
Q 3566 2609 3566 1747 
Q 3566 888 3137 398 
Q 2709 -91 1959 -91 
Q 1206 -91 779 398 
Q 353 888 353 1747 
Q 353 2609 779 3096 
Q 1206 3584 1959 3584 
z
" transform="scale(0.015625)"/>
       <path id="DejaVuSans-6d" d="M 3328 2828 
Q 3544 3216 3844 3400 
Q 4144 3584 4550 3584 
Q 5097 3584 5394 3201 
Q 5691 2819 5691 2113 
L 5691 0 
L 5113 0 
L 5113 2094 
Q 5113 2597 4934 2840 
Q 4756 3084 4391 3084 
Q 3944 3084 3684 2787 
Q 3425 2491 3425 1978 
L 3425 0 
L 2847 0 
L 2847 2094 
Q 2847 2600 2669 2842 
Q 2491 3084 2119 3084 
Q 1678 3084 1418 2786 
Q 1159 2488 1159 1978 
L 1159 0 
L 581 0 
L 581 3500 
L 1159 3500 
L 1159 2956 
Q 1356 3278 1631 3431 
Q 1906 3584 2284 3584 
Q 2666 3584 2933 3390 
Q 3200 3197 3328 2828 
z
" transform="scale(0.015625)"/>
       <path id="DejaVuSans-62" d="M 3116 1747 
Q 3116 2381 2855 2742 
Q 2594 3103 2138 3103 
Q 1681 3103 1420 2742 
Q 1159 2381 1159 1747 
Q 1159 1113 1420 752 
Q 1681 391 2138 391 
Q 2594 391 2855 752 
Q 3116 1113 3116 1747 
z
M 1159 2969 
Q 1341 3281 1617 3432 
Q 1894 3584 2278 3584 
Q 2916 3584 3314 3078 
Q 3713 2572 3713 1747 
Q 3713 922 3314 415 
Q 2916 -91 2278 -91 
Q 1894 -91 1617 61 
Q 1341 213 1159 525 
L 1159 0 
L 581 0 
L 581 4863 
L 1159 4863 
L 1159 2969 
z
" transform="scale(0.015625)"/>
       <path id="DejaVuSans-72" d="M 2631 2963 
Q 2534 3019 2420 3045 
Q 2306 3072 2169 3072 
Q 1681 3072 1420 2755 
Q 1159 2438 1159 1844 
L 1159 0 
L 581 0 
L 581 3500 
L 1159 3500 
L 1159 2956 
Q 1341 3275 1631 3429 
Q 1922 3584 2338 3584 
Q 2397 3584 2469 3576 
Q 2541 3569 2628 3553 
L 2631 2963 
z
" transform="scale(0.015625)"/>
       <path id="DejaVuSans-65" d="M 3597 1894 
L 3597 1613 
L 953 1613 
Q 991 1019 1311 708 
Q 1631 397 2203 397 
Q 2534 397 2845 478 
Q 3156 559 3463 722 
L 3463 178 
Q 3153 47 2828 -22 
Q 2503 -91 2169 -91 
Q 1331 -91 842 396 
Q 353 884 353 1716 
Q 353 2575 817 3079 
Q 1281 3584 2069 3584 
Q 2775 3584 3186 3129 
Q 3597 2675 3597 1894 
z
M 3022 2063 
Q 3016 2534 2758 2815 
Q 2500 3097 2075 3097 
Q 1594 3097 1305 2825 
Q 1016 2553 972 2059 
L 3022 2063 
z
" transform="scale(0.015625)"/>
       <path id="DejaVuSans-20" transform="scale(0.015625)"/>
       <path id="DejaVuSans-64" d="M 2906 2969 
L 2906 4863 
L 3481 4863 
L 3481 0 
L 2906 0 
L 2906 525 
Q 2725 213 2448 61 
Q 2172 -91 1784 -91 
Q 1150 -91 751 415 
Q 353 922 353 1747 
Q 353 2572 751 3078 
Q 1150 3584 1784 3584 
Q 2172 3584 2448 3432 
Q 2725 3281 2906 2969 
z
M 947 1747 
Q 947 1113 1208 752 
Q 1469 391 1925 391 
Q 2381 391 2643 752 
Q 2906 1113 2906 1747 
Q 2906 2381 2643 2742 
Q 2381 3103 1925 3103 
Q 1469 3103 1208 2742 
Q 947 2381 947 1747 
z
" transform="scale(0.015625)"/>
       <path id="DejaVuSans-76" d="M 191 3500 
L 800 3500 
L 1894 563 
L 2988 3500 
L 3597 3500 
L 2284 0 
L 1503 0 
L 191 3500 
z
" transform="scale(0.015625)"/>
       <path id="DejaVuSans-61" d="M 2194 1759 
Q 1497 1759 1228 1600 
Q 959 1441 959 1056 
Q 959 750 1161 570 
Q 1363 391 1709 391 
Q 2188 391 2477 730 
Q 2766 1069 2766 1631 
L 2766 1759 
L 2194 1759 
z
M 3341 1997 
L 3341 0 
L 2766 0 
L 2766 531 
Q 2569 213 2275 61 
Q 1981 -91 1556 -91 
Q 1019 -91 701 211 
Q 384 513 384 1019 
Q 384 1609 779 1909 
Q 1175 2209 1959 2209 
L 2766 2209 
L 2766 2266 
Q 2766 2663 2505 2880 
Q 2244 3097 1772 3097 
Q 1472 3097 1187 3025 
Q 903 2953 641 2809 
L 641 3341 
Q 956 3463 1253 3523 
Q 1550 3584 1831 3584 
Q 2591 3584 2966 3190 
Q 3341 2797 3341 1997 
z
" transform="scale(0.015625)"/>
       <path id="DejaVuSans-6c" d="M 603 4863 
L 1178 4863 
L 1178 0 
L 603 0 
L 603 4863 
z
" transform="scale(0.015625)"/>
       <path id="DejaVuSans-75" d="M 544 1381 
L 544 3500 
L 1119 3500 
L 1119 1403 
Q 1119 906 1312 657 
Q 1506 409 1894 409 
Q 2359 409 2629 706 
Q 2900 1003 2900 1516 
L 2900 3500 
L 3475 3500 
L 3475 0 
L 2900 0 
L 2900 538 
Q 2691 219 2414 64 
Q 2138 -91 1772 -91 
Q 1169 -91 856 284 
Q 544 659 544 1381 
z
M 1991 3584 
L 1991 3584 
z
" transform="scale(0.015625)"/>
       <path id="DejaVuSans-73" d="M 2834 3397 
L 2834 2853 
Q 2591 2978 2328 3040 
Q 2066 3103 1784 3103 
Q 1356 3103 1142 2972 
Q 928 2841 928 2578 
Q 928 2378 1081 2264 
Q 1234 2150 1697 2047 
L 1894 2003 
Q 2506 1872 2764 1633 
Q 3022 1394 3022 966 
Q 3022 478 2636 193 
Q 2250 -91 1575 -91 
Q 1294 -91 989 -36 
Q 684 19 347 128 
L 347 722 
Q 666 556 975 473 
Q 1284 391 1588 391 
Q 1994 391 2212 530 
Q 2431 669 2431 922 
Q 2431 1156 2273 1281 
Q 2116 1406 1581 1522 
L 1381 1569 
Q 847 1681 609 1914 
Q 372 2147 372 2553 
Q 372 3047 722 3315 
Q 1072 3584 1716 3584 
Q 2034 3584 2315 3537 
Q 2597 3491 2834 3397 
z
" transform="scale(0.015625)"/>
       <path id="DejaVuSans-6e" d="M 3513 2113 
L 3513 0 
L 2938 0 
L 2938 2094 
Q 2938 2591 2744 2837 
Q 2550 3084 2163 3084 
Q 1697 3084 1428 2787 
Q 1159 2491 1159 1978 
L 1159 0 
L 581 0 
L 581 3500 
L 1159 3500 
L 1159 2956 
Q 1366 3272 1645 3428 
Q 1925 3584 2291 3584 
Q 2894 3584 3203 3211 
Q 3513 2838 3513 2113 
z
" transform="scale(0.015625)"/>
       <path id="DejaVuSans-27" d="M 1147 4666 
L 1147 2931 
L 616 2931 
L 616 4666 
L 1147 4666 
z
" transform="scale(0.015625)"/>
       <path id="DejaVuSans-69" d="M 603 3500 
L 1178 3500 
L 1178 0 
L 603 0 
L 603 3500 
z
M 603 4863 
L 1178 4863 
L 1178 4134 
L 603 4134 
L 603 4863 
z
" transform="scale(0.015625)"/>
       <path id="DejaVuSans-74" d="M 1172 4494 
L 1172 3500 
L 2356 3500 
L 2356 3053 
L 1172 3053 
L 1172 1153 
Q 1172 725 1289 603 
Q 1406 481 1766 481 
L 2356 481 
L 2356 0 
L 1766 0 
Q 1100 0 847 248 
Q 594 497 594 1153 
L 594 3053 
L 172 3053 
L 172 3500 
L 594 3500 
L 594 4494 
L 1172 4494 
z
" transform="scale(0.015625)"/>
      </defs>
      <use xlink:href="#DejaVuSans-4e"/>
      <use xlink:href="#DejaVuSans-6f" x="74.804688"/>
      <use xlink:href="#DejaVuSans-6d" x="135.986328"/>
      <use xlink:href="#DejaVuSans-62" x="233.398438"/>
      <use xlink:href="#DejaVuSans-72" x="296.875"/>
      <use xlink:href="#DejaVuSans-65" x="335.738281"/>
      <use xlink:href="#DejaVuSans-20" x="397.261719"/>
      <use xlink:href="#DejaVuSans-64" x="429.048828"/>
      <use xlink:href="#DejaVuSans-65" x="492.525391"/>
      <use xlink:href="#DejaVuSans-20" x="554.048828"/>
      <use xlink:href="#DejaVuSans-76" x="585.835938"/>
      <use xlink:href="#DejaVuSans-61" x="645.015625"/>
      <use xlink:href="#DejaVuSans-6c" x="706.294922"/>
      <use xlink:href="#DejaVuSans-65" x="734.078125"/>
      <use xlink:href="#DejaVuSans-75" x="795.601562"/>
      <use xlink:href="#DejaVuSans-72" x="858.980469"/>
      <use xlink:href="#DejaVuSans-73" x="900.09375"/>
      <use xlink:href="#DejaVuSans-20" x="952.193359"/>
      <use xlink:href="#DejaVuSans-64" x="983.980469"/>
      <use xlink:href="#DejaVuSans-61" x="1047.457031"/>
      <use xlink:href="#DejaVuSans-6e" x="1108.736328"/>
      <use xlink:href="#DejaVuSans-73" x="1172.115234"/>
      <use xlink:href="#DejaVuSans-20" x="1224.214844"/>
      <use xlink:href="#DejaVuSans-6c" x="1256.001953"/>
      <use xlink:href="#DejaVuSans-27" x="1283.785156"/>
      <use xlink:href="#DejaVuSans-69" x="1311.275391"/>
      <use xlink:href="#DejaVuSans-6e" x="1339.058594"/>
      <use xlink:href="#DejaVuSans-74" x="1402.4375"/>
      <use xlink:href="#DejaVuSans-65" x="1441.646484"/>
      <use xlink:href="#DejaVuSans-72" x="1503.169922"/>
      <use xlink:href="#DejaVuSans-76" x="1544.283203"/>
      <use xlink:href="#DejaVuSans-61" x="1603.462891"/>
      <use xlink:href="#DejaVuSans-6c" x="1664.742188"/>
      <use xlink:href="#DejaVuSans-6c" x="1692.525391"/>
      <use xlink:href="#DejaVuSans-65" x="1720.308594"/>
     </g>
    </g>
   </g>
   <g id="matplotlib.axis_2">
    <g id="ytick_1">
     <g id="line2d_12">
      <defs>
       <path id="mab83fc07b0" d="M 0 0 
L -3.5 0 
" style="stroke: #000000; stroke-width: 0.8"/>
      </defs>
      <g>
       <use xlink:href="#mab83fc07b0" x="31.68" y="314.230909" style="stroke: #000000; stroke-width: 0.8"/>
      </g>
     </g>
     <g id="text_13">
      <!-- 1 -->
      <g transform="translate(18.3175 318.030128)scale(0.1 -0.1)">
       <use xlink:href="#DejaVuSans-31"/>
      </g>
     </g>
    </g>
    <g id="ytick_2">
     <g id="line2d_13">
      <g>
       <use xlink:href="#mab83fc07b0" x="31.68" y="266.067273" style="stroke: #000000; stroke-width: 0.8"/>
      </g>
     </g>
     <g id="text_14">
      <!-- 2 -->
      <g transform="translate(18.3175 269.866491)scale(0.1 -0.1)">
       <use xlink:href="#DejaVuSans-32"/>
      </g>
     </g>
    </g>
    <g id="ytick_3">
     <g id="line2d_14">
      <g>
       <use xlink:href="#mab83fc07b0" x="31.68" y="217.903636" style="stroke: #000000; stroke-width: 0.8"/>
      </g>
     </g>
     <g id="text_15">
      <!-- 3 -->
      <g transform="translate(18.3175 221.702855)scale(0.1 -0.1)">
       <defs>
        <path id="DejaVuSans-33" d="M 2597 2516 
Q 3050 2419 3304 2112 
Q 3559 1806 3559 1356 
Q 3559 666 3084 287 
Q 2609 -91 1734 -91 
Q 1441 -91 1130 -33 
Q 819 25 488 141 
L 488 750 
Q 750 597 1062 519 
Q 1375 441 1716 441 
Q 2309 441 2620 675 
Q 2931 909 2931 1356 
Q 2931 1769 2642 2001 
Q 2353 2234 1838 2234 
L 1294 2234 
L 1294 2753 
L 1863 2753 
Q 2328 2753 2575 2939 
Q 2822 3125 2822 3475 
Q 2822 3834 2567 4026 
Q 2313 4219 1838 4219 
Q 1578 4219 1281 4162 
Q 984 4106 628 3988 
L 628 4550 
Q 988 4650 1302 4700 
Q 1616 4750 1894 4750 
Q 2613 4750 3031 4423 
Q 3450 4097 3450 3541 
Q 3450 3153 3228 2886 
Q 3006 2619 2597 2516 
z
" transform="scale(0.015625)"/>
       </defs>
       <use xlink:href="#DejaVuSans-33"/>
      </g>
     </g>
    </g>
    <g id="ytick_4">
     <g id="line2d_15">
      <g>
       <use xlink:href="#mab83fc07b0" x="31.68" y="169.74" style="stroke: #000000; stroke-width: 0.8"/>
      </g>
     </g>
     <g id="text_16">
      <!-- 4 -->
      <g transform="translate(18.3175 173.539219)scale(0.1 -0.1)">
       <defs>
        <path id="DejaVuSans-34" d="M 2419 4116 
L 825 1625 
L 2419 1625 
L 2419 4116 
z
M 2253 4666 
L 3047 4666 
L 3047 1625 
L 3713 1625 
L 3713 1100 
L 3047 1100 
L 3047 0 
L 2419 0 
L 2419 1100 
L 313 1100 
L 313 1709 
L 2253 4666 
z
" transform="scale(0.015625)"/>
       </defs>
       <use xlink:href="#DejaVuSans-34"/>
      </g>
     </g>
    </g>
    <g id="ytick_5">
     <g id="line2d_16">
      <g>
       <use xlink:href="#mab83fc07b0" x="31.68" y="121.576364" style="stroke: #000000; stroke-width: 0.8"/>
      </g>
     </g>
     <g id="text_17">
      <!-- 5 -->
      <g transform="translate(18.3175 125.375582)scale(0.1 -0.1)">
       <use xlink:href="#DejaVuSans-35"/>
      </g>
     </g>
    </g>
    <g id="ytick_6">
     <g id="line2d_17">
      <g>
       <use xlink:href="#mab83fc07b0" x="31.68" y="73.412727" style="stroke: #000000; stroke-width: 0.8"/>
      </g>
     </g>
     <g id="text_18">
      <!-- 6 -->
      <g transform="translate(18.3175 77.211946)scale(0.1 -0.1)">
       <defs>
        <path id="DejaVuSans-36" d="M 2113 2584 
Q 1688 2584 1439 2293 
Q 1191 2003 1191 1497 
Q 1191 994 1439 701 
Q 1688 409 2113 409 
Q 2538 409 2786 701 
Q 3034 994 3034 1497 
Q 3034 2003 2786 2293 
Q 2538 2584 2113 2584 
z
M 3366 4563 
L 3366 3988 
Q 3128 4100 2886 4159 
Q 2644 4219 2406 4219 
Q 1781 4219 1451 3797 
Q 1122 3375 1075 2522 
Q 1259 2794 1537 2939 
Q 1816 3084 2150 3084 
Q 2853 3084 3261 2657 
Q 3669 2231 3669 1497 
Q 3669 778 3244 343 
Q 2819 -91 2113 -91 
Q 1303 -91 875 529 
Q 447 1150 447 2328 
Q 447 3434 972 4092 
Q 1497 4750 2381 4750 
Q 2619 4750 2861 4703 
Q 3103 4656 3366 4563 
z
" transform="scale(0.015625)"/>
       </defs>
       <use xlink:href="#DejaVuSans-36"/>
      </g>
     </g>
    </g>
    <g id="ytick_7">
     <g id="line2d_18">
      <g>
       <use xlink:href="#mab83fc07b0" x="31.68" y="25.249091" style="stroke: #000000; stroke-width: 0.8"/>
      </g>
     </g>
     <g id="text_19">
      <!-- 7 -->
      <g transform="translate(18.3175 29.04831)scale(0.1 -0.1)">
       <use xlink:href="#DejaVuSans-37"/>
      </g>
     </g>
    </g>
    <g id="text_20">
     <!-- Nombre de propositions -->
     <g transform="translate(12.237812 229.618906)rotate(-90)scale(0.1 -0.1)">
      <defs>
       <path id="DejaVuSans-70" d="M 1159 525 
L 1159 -1331 
L 581 -1331 
L 581 3500 
L 1159 3500 
L 1159 2969 
Q 1341 3281 1617 3432 
Q 1894 3584 2278 3584 
Q 2916 3584 3314 3078 
Q 3713 2572 3713 1747 
Q 3713 922 3314 415 
Q 2916 -91 2278 -91 
Q 1894 -91 1617 61 
Q 1341 213 1159 525 
z
M 3116 1747 
Q 3116 2381 2855 2742 
Q 2594 3103 2138 3103 
Q 1681 3103 1420 2742 
Q 1159 2381 1159 1747 
Q 1159 1113 1420 752 
Q 1681 391 2138 391 
Q 2594 391 2855 752 
Q 3116 1113 3116 1747 
z
" transform="scale(0.015625)"/>
      </defs>
      <use xlink:href="#DejaVuSans-4e"/>
      <use xlink:href="#DejaVuSans-6f" x="74.804688"/>
      <use xlink:href="#DejaVuSans-6d" x="135.986328"/>
      <use xlink:href="#DejaVuSans-62" x="233.398438"/>
      <use xlink:href="#DejaVuSans-72" x="296.875"/>
      <use xlink:href="#DejaVuSans-65" x="335.738281"/>
      <use xlink:href="#DejaVuSans-20" x="397.261719"/>
      <use xlink:href="#DejaVuSans-64" x="429.048828"/>
      <use xlink:href="#DejaVuSans-65" x="492.525391"/>
      <use xlink:href="#DejaVuSans-20" x="554.048828"/>
      <use xlink:href="#DejaVuSans-70" x="585.835938"/>
      <use xlink:href="#DejaVuSans-72" x="649.3125"/>
      <use xlink:href="#DejaVuSans-6f" x="688.175781"/>
      <use xlink:href="#DejaVuSans-70" x="749.357422"/>
      <use xlink:href="#DejaVuSans-6f" x="812.833984"/>
      <use xlink:href="#DejaVuSans-73" x="874.015625"/>
      <use xlink:href="#DejaVuSans-69" x="926.115234"/>
      <use xlink:href="#DejaVuSans-74" x="953.898438"/>
      <use xlink:href="#DejaVuSans-69" x="993.107422"/>
      <use xlink:href="#DejaVuSans-6f" x="1020.890625"/>
      <use xlink:href="#DejaVuSans-6e" x="1082.072266"/>
      <use xlink:href="#DejaVuSans-73" x="1145.451172"/>
     </g>
    </g>
   </g>
   <g id="patch_3">
    <path d="M 31.68 328.68 
L 31.68 10.8 
" style="fill: none; stroke: #000000; stroke-width: 0.8; stroke-linejoin: miter; stroke-linecap: square"/>
   </g>
   <g id="patch_4">
    <path d="M 709.2 328.68 
L 709.2 10.8 
" style="fill: none; stroke: #000000; stroke-width: 0.8; stroke-linejoin: miter; stroke-linecap: square"/>
   </g>
   <g id="patch_5">
    <path d="M 31.68 328.68 
L 709.2 328.68 
" style="fill: none; stroke: #000000; stroke-width: 0.8; stroke-linejoin: miter; stroke-linecap: square"/>
   </g>
   <g id="patch_6">
    <path d="M 31.68 10.8 
L 709.2 10.8 
" style="fill: none; stroke: #000000; stroke-width: 0.8; stroke-linejoin: miter; stroke-linecap: square"/>
   </g>
  </g>
 </g>
 <defs>
  <clipPath id="p64d3ad8429">
   <rect x="31.68" y="10.8" width="677.52" height="317.88"/>
  </clipPath>
 </defs>
</svg>
